^D:\CODE\LAB_FIX\LAB_FIX\X64\DEBUG\ELEMENT.OBJ|D:\CODE\LAB_FIX\LAB_FIX\X64\DEBUG\MAIN.OBJ|D:\CODE\LAB_FIX\LAB_FIX\X64\DEBUG\TEYLOR.OBJ
D:\CODE\LAB_FIX\X64\DEBUG\LAB_FIX.EXE
D:\CODE\LAB_FIX\X64\DEBUG\LAB_FIX.ILK
D:\CODE\LAB_FIX\X64\DEBUG\LAB_FIX.PDB
